Linear Models
…
Diagnostics

Regression diagnostics can identify issues in model fit, especially related to certian failures in model assumptions. The modelr package can be used to add residuals and fitted values to a dataframe.

modelr::add_residuals(data = nyc_airbnb, model = fit)

## # A tibble: 40,492 x 6
##    price stars borough neighborhood room_type        resid
##    <dbl> <dbl> <fct>   <chr>        <fct>            <dbl>
##  1    99   5   Bronx   City Island  Private room      9.47
##  2   200  NA   Bronx   City Island  Private room     NA   
##  3   300  NA   Bronx   City Island  Entire home/apt  NA   
##  4   125   5   Bronx   City Island  Entire home/apt  35.5 
##  5    69   5   Bronx   City Island  Private room    -20.5 
##  6   125   5   Bronx   City Island  Entire home/apt  35.5 
##  7    85   5   Bronx   City Island  Entire home/apt  -4.53
##  8    39   4.5 Bronx   Allerton     Private room    -34.5 
##  9    95   5   Bronx   Allerton     Entire home/apt   5.47
## 10   125   4.5 Bronx   Allerton     Entire home/apt  51.5 
## #  with 40,482 more rows
…
